{
  "development": {
    "username": "root",
    "password": null,
    "database": "portfolio_development",
    "host": "127.0.0.1",
    "dialect": "postgres"
  },
  "test": {
    "username": "root",
    "password": null,
    "database": "portfolio_test",
    "host": "127.0.0.1",
    "dialect": "postgres"
  },
  "production": {
    "use_env_variable": "DATABASE_URL"
  }
}
